Series_reference,Period,Data_value,Suppressed,STATUS,UNITS,Magnitude,Subject,Group,Series_title_1,Series_title_2,Series_title_3,Series_title_4,Series_title_5
BDCQ.SF1AA2CA,2016.06,1116.386,,F,Dollars,6,Business Data Collection - BDC,Industry by financial variable,Sales (operating income),Forestry and Logging,Current prices,Unadjusted,
BDCQ.SF1AA2CA,2016.09,1070.874,,F,Dollars,6,Business Data Collection - BDC,Industry by financial variable,Sales (operating income),Forestry and Logging,Current prices,Unadjusted,
BDCQ.SF1AA2CA,2016.12,1054.408,,F,Dollars,6,Business Data Collection - BDC,Industry by financial variable,Sales (operating income),Forestry and Logging,Current prices,Unadjusted,
BDCQ.SF1AA2CA,2017.03,1010.665,,F,Dollars,6,Business Data Collection - BDC,Industry by financial variable,Sales (operating income),Forestry and Logging,Current prices,Unadjusted,
BDCQ.SF1AA2CA,2017.06,1233.7,,F,Dollars,6,Business Data Collection - BDC,Industry by financial variable,Sales (operating income),Forestry and Logging,Current prices,Unadjusted,
